…
``` r
data %>% group_by(day,chan) %>%
  summarise(n=n(),
            Avg=mean(shares),
            Sd=sd(shares),
            Median=median(shares),
            Min=min(shares),
            Max=max(shares))
```

    ## `summarise()` has grouped output by 'day'. You can override using the
    ## `.groups` argument.

    ## # A tibble: 49 × 8
    ## # Groups:   day [7]
    ##    day     chan              n   Avg     Sd Median   Min    Max
    ##    <fct>   <fct>         <int> <dbl>  <dbl>  <dbl> <dbl>  <dbl>
    ##  1 Monday  Entertainment  1358 2931.  7176.   1100    59 112600
    ##  2 Monday  Business       1153 3887. 28313.   1400     1 690400
    ##  3 Monday  Technology     1235 2821.  3915.   1600   192  51000
    ##  4 Monday  Lifestyle       322 4346. 14073.   1600   109 196700
    ##  5 Monday  World          1356 2456.  6865.   1100    43 141400
    ##  6 Monday  Social Media    337 4010.  6046.   2300    53  57600
    ##  7 Monday  <NA>            900 6961. 17388.   1900     4 200100
    ##  8 Tuesday Entertainment  1285 2708.  6453.   1100    47  98000
    ##  9 Tuesday Business       1182 2932. 10827.   1300    44 310800
    ## 10 Tuesday Technology     1474 2883.  4722.   1600   104  88500
    ## # … with 39 more rows
…
``` r
training %>% group_by(title_sentiment_polarity) %>%
  summarise(n=n(),
            Avg=mean(shares),
            Sd=sd(shares),
            Median=median(shares),
            Min=min(shares),
            Max=max(shares))
```

    ## # A tibble: 149 × 7
    ##    title_sentiment_polarity     n    Avg    Sd Median   Min   Max
    ##                       <dbl> <int>  <dbl> <dbl>  <dbl> <dbl> <dbl>
    ##  1                   -1         6  8100  8093.   6000  1400 22300
    ##  2                   -0.8       2  1200     0    1200  1200  1200
    ##  3                   -0.738     1  1100    NA    1100  1100  1100
    ##  4                   -0.714     2  3095  3684.   3095   490  5700
    ##  5                   -0.707     1  1300    NA    1300  1300  1300
    ##  6                   -0.7       7  4800. 4754.   3300   401 13000
    ##  7                   -0.667     1  7200    NA    7200  7200  7200
    ##  8                   -0.625     1  3100    NA    3100  3100  3100
    ##  9                   -0.6       6  2714. 2297.   1750   882  7000
    ## 10                   -0.583     1 12300    NA   12300 12300 12300
    ## # … with 139 more rows
…
``` r
training %>% group_by(n_tokens_content) %>%
  summarise(n=n(),
            Avg=mean(shares),
            Sd=sd(shares),
            Median=median(shares),
            Min=min(shares),
            Max=max(shares))
```

    ## # A tibble: 831 × 7
    ##    n_tokens_content     n   Avg    Sd Median   Min   Max
    ##               <dbl> <int> <dbl> <dbl>  <dbl> <dbl> <dbl>
    ##  1                0    14 6693. 6160.   4050  1100 23100
    ##  2               77     1  782    NA     782   782   782
    ##  3               81     1  490    NA     490   490   490
    ##  4               85     1 1300    NA    1300  1300  1300
    ##  5               91     2 2100   141.   2100  2000  2200
    ##  6               96     1 4400    NA    4400  4400  4400
    ##  7               97     1 1200    NA    1200  1200  1200
    ##  8               99     2 1600   141.   1600  1500  1700
    ##  9              101     1 2700    NA    2700  2700  2700
    ## 10              102     1  527    NA     527   527   527
    ## # … with 821 more rows
…
