…
``` r
data %>% group_by(day,chan) %>%
  summarise(n=n(),
            Avg=mean(shares),
            Sd=sd(shares),
            Median=median(shares),
            Min=min(shares),
            Max=max(shares))
```

    ## `summarise()` has grouped output by 'day'. You can override using the
    ## `.groups` argument.

    ## # A tibble: 49 × 8
    ## # Groups:   day [7]
    ##    day     chan              n   Avg     Sd Median   Min    Max
    ##    <fct>   <fct>         <int> <dbl>  <dbl>  <dbl> <dbl>  <dbl>
    ##  1 Monday  Entertainment  1358 2931.  7176.   1100    59 112600
    ##  2 Monday  Business       1153 3887. 28313.   1400     1 690400
    ##  3 Monday  Technology     1235 2821.  3915.   1600   192  51000
    ##  4 Monday  Lifestyle       322 4346. 14073.   1600   109 196700
    ##  5 Monday  World          1356 2456.  6865.   1100    43 141400
    ##  6 Monday  Social Media    337 4010.  6046.   2300    53  57600
    ##  7 Monday  <NA>            900 6961. 17388.   1900     4 200100
    ##  8 Tuesday Entertainment  1285 2708.  6453.   1100    47  98000
    ##  9 Tuesday Business       1182 2932. 10827.   1300    44 310800
    ## 10 Tuesday Technology     1474 2883.  4722.   1600   104  88500
    ## # … with 39 more rows
…
``` r
training %>% group_by(title_sentiment_polarity) %>%
  summarise(n=n(),
            Avg=mean(shares),
            Sd=sd(shares),
            Median=median(shares),
            Min=min(shares),
            Max=max(shares))
```

    ## # A tibble: 250 × 7
    ##    title_sentiment_polarity     n   Avg    Sd Median   Min   Max
    ##                       <dbl> <int> <dbl> <dbl>  <dbl> <dbl> <dbl>
    ##  1                   -1         8 2528. 1097.   2850   726  4000
    ##  2                   -0.815     1 4800    NA    4800  4800  4800
    ##  3                   -0.8       6 2800  3286.   1550  1200  9500
    ##  4                   -0.714     3 2767. 2454.   1400  1300  5600
    ##  5                   -0.7       8 5000  4970.   3300  1400 16700
    ##  6                   -0.65      1 3000    NA    3000  3000  3000
    ##  7                   -0.6      14 3317. 3272.   2050   936 12800
    ##  8                   -0.55      1 1100    NA    1100  1100  1100
    ##  9                   -0.508     1 3700    NA    3700  3700  3700
    ## 10                   -0.5      47 2510. 2253.   1600   675 11200
    ## # … with 240 more rows
…
``` r
training %>% group_by(n_tokens_content) %>%
  summarise(n=n(),
            Avg=mean(shares),
            Sd=sd(shares),
            Median=median(shares),
            Min=min(shares),
            Max=max(shares))
```

    ## # A tibble: 1,433 × 7
    ##    n_tokens_content     n   Avg    Sd Median   Min   Max
    ##               <dbl> <int> <dbl> <dbl>  <dbl> <dbl> <dbl>
    ##  1                0    14 3978. 3335.   3000   887 13200
    ##  2               35     1 2000    NA    2000  2000  2000
    ##  3               41     1 2000    NA    2000  2000  2000
    ##  4               46     1 1100    NA    1100  1100  1100
    ##  5               54     1 1900    NA    1900  1900  1900
    ##  6               65     1 3000    NA    3000  3000  3000
    ##  7               67     1 3000    NA    3000  3000  3000
    ##  8               71     1 3600    NA    3600  3600  3600
    ##  9               75     1 2800    NA    2800  2800  2800
    ## 10               77     2 1813  1537.   1813   726  2900
    ## # … with 1,423 more rows
…
